<?xml version="1.0" encoding="UTF-8" standalone="no"?>
<!-- Created with Inkscape (http://www.inkscape.org/) -->

<svg xmlns:dc="http://purl.org/dc/elements/1.1/" xmlns:cc="http://creativecommons.org/ns#" xmlns:rdf="http://www.w3.org/1999/02/22-rdf-syntax-ns#" xmlns:svg="http://www.w3.org/2000/svg" xmlns="http://www.w3.org/2000/svg" xmlns:sodipodi="http://sodipodi.sourceforge.net/DTD/sodipodi-0.dtd" xmlns:inkscape="http://www.inkscape.org/namespaces/inkscape" width="512" height="512" viewBox="0 0 135.46666 135.46667" version="1.1" id="svg5226" inkscape:version="0.92.1 r15371" sodipodi:docname="icon.svg">
 <title id="title6046">Tiles Icon</title>
 <defs id="defs5220">
  <filter style="color-interpolation-filters:sRGB" inkscape:label="Feather" id="filter4765">
   <feGaussianBlur stdDeviation="0.31" result="blur" id="feGaussianBlur4757" />
   <feComposite in="SourceGraphic" in2="blur" operator="atop" result="composite1" id="feComposite4759" />
   <feComposite in2="composite1" operator="in" result="composite2" id="feComposite4761" />
   <feComposite in2="composite2" operator="in" result="composite3" id="feComposite4763" />
  </filter>
  <filter style="color-interpolation-filters:sRGB" inkscape:label="Feather" id="filter4765-1">
   <feGaussianBlur stdDeviation="0.31" result="blur" id="feGaussianBlur4757-7" />
   <feComposite in="SourceGraphic" in2="blur" operator="atop" result="composite1" id="feComposite4759-8" />
   <feComposite in2="composite1" operator="in" result="composite2" id="feComposite4761-9" />
   <feComposite in2="composite2" operator="in" result="composite3" id="feComposite4763-1" />
  </filter>
  <filter style="color-interpolation-filters:sRGB" inkscape:label="Feather" id="filter4765-9">
   <feGaussianBlur stdDeviation="0.31" result="blur" id="feGaussianBlur4757-9" />
   <feComposite in="SourceGraphic" in2="blur" operator="atop" result="composite1" id="feComposite4759-4" />
   <feComposite in2="composite1" operator="in" result="composite2" id="feComposite4761-5" />
   <feComposite in2="composite2" operator="in" result="composite3" id="feComposite4763-9" />
  </filter>
  <filter style="color-interpolation-filters:sRGB" inkscape:label="Feather" id="filter4765-97">
   <feGaussianBlur stdDeviation="0.31" result="blur" id="feGaussianBlur4757-8" />
   <feComposite in="SourceGraphic" in2="blur" operator="atop" result="composite1" id="feComposite4759-2" />
   <feComposite in2="composite1" operator="in" result="composite2" id="feComposite4761-53" />
   <feComposite in2="composite2" operator="in" result="composite3" id="feComposite4763-4" />
  </filter>
  <filter style="color-interpolation-filters:sRGB" inkscape:label="Feather" id="filter4765-12">
   <feGaussianBlur stdDeviation="0.31" result="blur" id="feGaussianBlur4757-0" />
   <feComposite in="SourceGraphic" in2="blur" operator="atop" result="composite1" id="feComposite4759-7" />
   <feComposite in2="composite1" operator="in" result="composite2" id="feComposite4761-3" />
   <feComposite in2="composite2" operator="in" result="composite3" id="feComposite4763-11" />
  </filter>
  <filter style="color-interpolation-filters:sRGB;" inkscape:label="Drop Shadow" id="filter4968" y="-1.5" height="4">
   <feFlood flood-opacity="0.498039" flood-color="rgb(0,0,0)" result="flood" id="feFlood4958" />
   <feComposite in="flood" in2="SourceGraphic" operator="in" result="composite1" id="feComposite4960" />
   <feGaussianBlur in="composite1" stdDeviation="3" result="blur" id="feGaussianBlur4962" />
   <feOffset dx="0" dy="-6.38378e-16" result="offset" id="feOffset4964" />
   <feComposite in="SourceGraphic" in2="offset" operator="over" result="composite2" id="feComposite4966" />
  </filter>
 </defs>
 <sodipodi:namedview id="base" pagecolor="#ffffff" bordercolor="#666666" borderopacity="1.0" inkscape:pageopacity="0.0" inkscape:pageshadow="2" inkscape:zoom="1.979899" inkscape:cx="304.61734" inkscape:cy="363.21471" inkscape:document-units="px" inkscape:current-layer="layer1" showgrid="false" units="px" inkscape:window-width="1920" inkscape:window-height="1005" inkscape:window-x="0" inkscape:window-y="24" inkscape:window-maximized="1" />
 <metadata id="metadata5223">
  <rdf:RDF>
   <cc:Work rdf:about="">
    <dc:format>image/svg+xml</dc:format>
    <dc:type rdf:resource="http://purl.org/dc/dcmitype/StillImage" />
    <dc:title>Tiles Icon</dc:title>
    <dc:creator>
     <cc:Agent>
      <dc:title>Oliver Galvin</dc:title>
     </cc:Agent>
    </dc:creator>
    <dc:description>Icon of Tiles, a GTK crossword game.</dc:description>
    <cc:license rdf:resource="https://www.gnu.org/licenses/gpl-3.0.html" />
   </cc:Work>
  </rdf:RDF>
 </metadata>
 <g inkscape:label="Layer 1" inkscape:groupmode="layer" id="layer1" transform="translate(0,-161.53332)">
  <g id="g6175" style="filter:url(#filter4968)">
   <g inkscape:label="S" id="g4593-90" transform="matrix(0.32319,0,0,0.32319,103.23887,148.37919)">
    <rect id="background-56" width="100" height="100" x="0" y="197" style="display:inline;fill:#d1b899;fill-opacity:1;stroke:none;stroke-width:1;stroke-linecap:round;stroke-linejoin:round;stroke-miterlimit:4;stroke-dasharray:none;stroke-opacity:1" ry="5" inkscape:label="background" />
    <path style="display:inline;fill:#bca488;fill-opacity:1;stroke:none;stroke-width:0.99992722;stroke-linecap:round;stroke-linejoin:round;stroke-miterlimit:4;stroke-dasharray:none;stroke-opacity:1;filter:url(#filter4765-12)" d="m 96,201.75703 v 87.9935 C 96,292.38184 95.374564,293 92.743255,293 H 4.7497521 0 c 0,2.7698 2.2300493,4.0001 4.9998479,4.0001 H 94.992975 c 2.769799,0 4.999846,-2.23005 4.999846,-4.99985 v -89.99312 c 0,-2.7698 -1.223019,-4.99985 -3.992821,-4.99985 z" id="shadow-77" inkscape:connector-curvature="0" sodipodi:nodetypes="cssccsssscc" inkscape:label="shadow" />
    <text xml:space="preserve" style="font-style:normal;font-weight:normal;font-size:88.19444275px;line-height:1.25;font-family:sans-serif;letter-spacing:0px;word-spacing:0px;fill:#000000;fill-opacity:1;stroke:none;stroke-width:0.45744222" x="45.803249" y="268.27243" id="letter-4" inkscape:label="letter"><tspan sodipodi:role="line" id="tspan4489-0" x="45.803249" y="268.27243" style="font-style:normal;font-variant:normal;font-weight:normal;font-stretch:normal;font-size:79.375px;font-family:'Source Sans Pro';-inkscape-font-specification:'Source Sans Pro, Normal';font-variant-ligatures:normal;font-variant-caps:normal;font-variant-numeric:normal;font-feature-settings:normal;text-align:center;writing-mode:lr-tb;text-anchor:middle;stroke-width:0.45744222">S</tspan></text>
    <text xml:space="preserve" style="font-style:normal;font-weight:normal;font-size:10.58333302px;line-height:1.25;font-family:sans-serif;letter-spacing:0px;word-spacing:0px;display:inline;fill:#000000;fill-opacity:1;stroke:none;stroke-width:0.26458332" x="79.790695" y="281.54129" id="score-64" inkscape:label="score"><tspan sodipodi:role="line" id="tspan4493-7" x="79.790695" y="281.54129" style="font-style:normal;font-variant:normal;font-weight:bold;font-stretch:normal;font-size:16.93333244px;font-family:'Source Sans Pro';-inkscape-font-specification:'Source Sans Pro Bold';stroke-width:0.26458332">1</tspan></text>
   </g>
   <g inkscape:label="E" id="g4593-9" transform="matrix(0.32319,0,0,0.32319,74.066553,150.49587)">
    <rect id="background-0" width="100" height="100" x="0" y="197" style="display:inline;fill:#d1b899;fill-opacity:1;stroke:none;stroke-width:1;stroke-linecap:round;stroke-linejoin:round;stroke-miterlimit:4;stroke-dasharray:none;stroke-opacity:1" ry="5" inkscape:label="background" />
    <path style="display:inline;fill:#bca488;fill-opacity:1;stroke:none;stroke-width:0.99992722;stroke-linecap:round;stroke-linejoin:round;stroke-miterlimit:4;stroke-dasharray:none;stroke-opacity:1;filter:url(#filter4765-97)" d="m 96,201.75703 v 87.9935 C 96,292.38184 95.374564,293 92.743255,293 H 4.7497521 0 c 0,2.7698 2.2300493,4.0001 4.9998479,4.0001 H 94.992975 c 2.769799,0 4.999846,-2.23005 4.999846,-4.99985 v -89.99312 c 0,-2.7698 -1.223019,-4.99985 -3.992821,-4.99985 z" id="shadow-2" inkscape:connector-curvature="0" sodipodi:nodetypes="cssccsssscc" inkscape:label="shadow" />
    <text xml:space="preserve" style="font-style:normal;font-weight:normal;font-size:88.19444275px;line-height:1.25;font-family:sans-serif;letter-spacing:0px;word-spacing:0px;fill:#000000;fill-opacity:1;stroke:none;stroke-width:0.45744222" x="45.803249" y="268.27243" id="letter-01" inkscape:label="letter"><tspan sodipodi:role="line" id="tspan4489-9" x="45.803249" y="268.27243" style="font-style:normal;font-variant:normal;font-weight:normal;font-stretch:normal;font-size:79.375px;font-family:'Source Sans Pro';-inkscape-font-specification:'Source Sans Pro, Normal';font-variant-ligatures:normal;font-variant-caps:normal;font-variant-numeric:normal;font-feature-settings:normal;text-align:center;writing-mode:lr-tb;text-anchor:middle;stroke-width:0.45744222">E</tspan></text>
    <text xml:space="preserve" style="font-style:normal;font-weight:normal;font-size:10.58333302px;line-height:1.25;font-family:sans-serif;letter-spacing:0px;word-spacing:0px;display:inline;fill:#000000;fill-opacity:1;stroke:none;stroke-width:0.26458332" x="79.790695" y="281.54129" id="score-6" inkscape:label="score"><tspan sodipodi:role="line" id="tspan4493-2" x="79.790695" y="281.54129" style="font-style:normal;font-variant:normal;font-weight:bold;font-stretch:normal;font-size:16.93333244px;font-family:'Source Sans Pro';-inkscape-font-specification:'Source Sans Pro Bold';stroke-width:0.26458332">1</tspan></text>
   </g>
   <g inkscape:label="L" id="g4593-3" transform="matrix(0.32319,0,0,0.32319,51.574992,148.37919)">
    <rect id="background-5" width="100" height="100" x="0" y="197" style="display:inline;fill:#d1b899;fill-opacity:1;stroke:none;stroke-width:1;stroke-linecap:round;stroke-linejoin:round;stroke-miterlimit:4;stroke-dasharray:none;stroke-opacity:1" ry="5" inkscape:label="background" />
    <path style="display:inline;fill:#bca488;fill-opacity:1;stroke:none;stroke-width:0.99992722;stroke-linecap:round;stroke-linejoin:round;stroke-miterlimit:4;stroke-dasharray:none;stroke-opacity:1;filter:url(#filter4765-9)" d="m 96,201.75703 v 87.9935 C 96,292.38184 95.374564,293 92.743255,293 H 4.7497521 0 c 0,2.7698 2.2300493,4.0001 4.9998479,4.0001 H 94.992975 c 2.769799,0 4.999846,-2.23005 4.999846,-4.99985 v -89.99312 c 0,-2.7698 -1.223019,-4.99985 -3.992821,-4.99985 z" id="shadow-7" inkscape:connector-curvature="0" sodipodi:nodetypes="cssccsssscc" inkscape:label="shadow" />
    <text xml:space="preserve" style="font-style:normal;font-weight:normal;font-size:88.19444275px;line-height:1.25;font-family:sans-serif;letter-spacing:0px;word-spacing:0px;fill:#000000;fill-opacity:1;stroke:none;stroke-width:0.45744222" x="45.803249" y="268.27243" id="letter-0" inkscape:label="letter"><tspan sodipodi:role="line" id="tspan4489-8" x="45.803249" y="268.27243" style="font-style:normal;font-variant:normal;font-weight:normal;font-stretch:normal;font-size:79.375px;font-family:'Source Sans Pro';-inkscape-font-specification:'Source Sans Pro, Normal';font-variant-ligatures:normal;font-variant-caps:normal;font-variant-numeric:normal;font-feature-settings:normal;text-align:center;writing-mode:lr-tb;text-anchor:middle;stroke-width:0.45744222">L</tspan></text>
    <text xml:space="preserve" style="font-style:normal;font-weight:normal;font-size:10.58333302px;line-height:1.25;font-family:sans-serif;letter-spacing:0px;word-spacing:0px;display:inline;fill:#000000;fill-opacity:1;stroke:none;stroke-width:0.26458332" x="79.790695" y="281.54129" id="score-1" inkscape:label="score"><tspan sodipodi:role="line" id="tspan4493-9" x="79.790695" y="281.54129" style="font-style:normal;font-variant:normal;font-weight:bold;font-stretch:normal;font-size:16.93333244px;font-family:'Source Sans Pro';-inkscape-font-specification:'Source Sans Pro Bold';stroke-width:0.26458332">1</tspan></text>
   </g>
   <g inkscape:label="I" id="g4593-5" transform="matrix(0.32319,0,0,0.32319,29.109894,150.49587)">
    <rect id="background-4" width="100" height="100" x="0" y="197" style="display:inline;fill:#d1b899;fill-opacity:1;stroke:none;stroke-width:1;stroke-linecap:round;stroke-linejoin:round;stroke-miterlimit:4;stroke-dasharray:none;stroke-opacity:1" ry="5" inkscape:label="background" />
    <path style="display:inline;fill:#bca488;fill-opacity:1;stroke:none;stroke-width:0.99992722;stroke-linecap:round;stroke-linejoin:round;stroke-miterlimit:4;stroke-dasharray:none;stroke-opacity:1;filter:url(#filter4765-1)" d="m 96,201.75703 v 87.9935 C 96,292.38184 95.374564,293 92.743255,293 H 4.7497521 0 c 0,2.7698 2.2300493,4.0001 4.9998479,4.0001 H 94.992975 c 2.769799,0 4.999846,-2.23005 4.999846,-4.99985 v -89.99312 c 0,-2.7698 -1.223019,-4.99985 -3.992821,-4.99985 z" id="shadow-9" inkscape:connector-curvature="0" sodipodi:nodetypes="cssccsssscc" inkscape:label="shadow" />
    <text xml:space="preserve" style="font-style:normal;font-weight:normal;font-size:88.19444275px;line-height:1.25;font-family:sans-serif;letter-spacing:0px;word-spacing:0px;fill:#000000;fill-opacity:1;stroke:none;stroke-width:0.45744222" x="45.803249" y="268.27243" id="letter-2" inkscape:label="letter"><tspan sodipodi:role="line" id="tspan4489-5" x="45.803249" y="268.27243" style="font-style:normal;font-variant:normal;font-weight:normal;font-stretch:normal;font-size:79.375px;font-family:'Source Sans Pro';-inkscape-font-specification:'Source Sans Pro, Normal';font-variant-ligatures:normal;font-variant-caps:normal;font-variant-numeric:normal;font-feature-settings:normal;text-align:center;writing-mode:lr-tb;text-anchor:middle;stroke-width:0.45744222">I</tspan></text>
    <text xml:space="preserve" style="font-style:normal;font-weight:normal;font-size:10.58333302px;line-height:1.25;font-family:sans-serif;letter-spacing:0px;word-spacing:0px;display:inline;fill:#000000;fill-opacity:1;stroke:none;stroke-width:0.26458332" x="79.790695" y="281.54129" id="score-7" inkscape:label="score"><tspan sodipodi:role="line" id="tspan4493-4" x="79.790695" y="281.54129" style="font-style:normal;font-variant:normal;font-weight:bold;font-stretch:normal;font-size:16.93333244px;font-family:'Source Sans Pro';-inkscape-font-specification:'Source Sans Pro Bold';stroke-width:0.26458332">1</tspan></text>
   </g>
   <g inkscape:label="T" id="g4593" transform="matrix(0.32319,0,0,0.32319,0.44031378,148.37919)">
    <rect id="background" width="100" height="100" x="0" y="197" style="display:inline;fill:#d1b899;fill-opacity:1;stroke:none;stroke-width:1;stroke-linecap:round;stroke-linejoin:round;stroke-miterlimit:4;stroke-dasharray:none;stroke-opacity:1" ry="5" inkscape:label="background" />
    <path style="display:inline;fill:#bca488;fill-opacity:1;stroke:none;stroke-width:0.99992722;stroke-linecap:round;stroke-linejoin:round;stroke-miterlimit:4;stroke-dasharray:none;stroke-opacity:1;filter:url(#filter4765)" d="m 96,201.75703 v 87.9935 C 96,292.38184 95.374564,293 92.743255,293 H 4.7497521 0 c 0,2.7698 2.2300493,4.0001 4.9998479,4.0001 H 94.992975 c 2.769799,0 4.999846,-2.23005 4.999846,-4.99985 v -89.99312 c 0,-2.7698 -1.223019,-4.99985 -3.992821,-4.99985 z" id="shadow" inkscape:connector-curvature="0" sodipodi:nodetypes="cssccsssscc" inkscape:label="shadow" />
    <text xml:space="preserve" style="font-style:normal;font-weight:normal;font-size:88.19444275px;line-height:1.25;font-family:sans-serif;letter-spacing:0px;word-spacing:0px;fill:#000000;fill-opacity:1;stroke:none;stroke-width:0.45744222" x="45.803249" y="268.27243" id="letter" inkscape:label="letter"><tspan sodipodi:role="line" id="tspan4489" x="45.803249" y="268.27243" style="font-style:normal;font-variant:normal;font-weight:normal;font-stretch:normal;font-size:79.375px;font-family:'Source Sans Pro';-inkscape-font-specification:'Source Sans Pro, Normal';font-variant-ligatures:normal;font-variant-caps:normal;font-variant-numeric:normal;font-feature-settings:normal;text-align:center;writing-mode:lr-tb;text-anchor:middle;stroke-width:0.45744222">T</tspan></text>
    <text xml:space="preserve" style="font-style:normal;font-weight:normal;font-size:10.58333302px;line-height:1.25;font-family:sans-serif;letter-spacing:0px;word-spacing:0px;display:inline;fill:#000000;fill-opacity:1;stroke:none;stroke-width:0.26458332" x="79.790695" y="281.54129" id="score" inkscape:label="score"><tspan sodipodi:role="line" id="tspan4493" x="79.790695" y="281.54129" style="font-style:normal;font-variant:normal;font-weight:bold;font-stretch:normal;font-size:16.93333244px;font-family:'Source Sans Pro';-inkscape-font-specification:'Source Sans Pro Bold';stroke-width:0.26458332">1</tspan></text>
   </g>
  </g>
 </g>
</svg>
